%YAML 1.1
%TAG !u! tag:unity3d.com,2011:
--- !u!1 &3423995902681725442
GameObject:
  m_ObjectHideFlags: 0
  m_CorrespondingSourceObject: {fileID: 0}
  m_PrefabInstance: {fileID: 0}
  m_PrefabAsset: {fileID: 0}
  serializedVersion: 6
  m_Component:
  - component: {fileID: 6691452158422745195}
  - component: {fileID: 726812306117025819}
  m_Layer: 0
  m_Name: Point Light
  m_TagString: Untagged
  m_Icon: {fileID: 0}
  m_NavMeshLayer: 0
  m_StaticEditorFlags: 0
  m_IsActive: 1
--- !u!4 &6691452158422745195
Transform:
  m_ObjectHideFlags: 0
  m_CorrespondingSourceObject: {fileID: 0}
  m_PrefabInstance: {fileID: 0}
  m_PrefabAsset: {fileID: 0}
  m_GameObject: {fileID: 3423995902681725442}
  serializedVersion: 2
  m_LocalRotation: {x: -0.6235119, y: -0.5320586, z: -0.41206342, w: 0.39793253}
  m_LocalPosition: {x: 0.66, y: 0.02, z: 0}
  m_LocalScale: {x: 1.6435362, y: 1.6818912, z: 1.0587835}
  m_ConstrainProportionsScale: 0
  m_Children: []
  m_Father: {fileID: 3933937455181086501}
  m_LocalEulerAnglesHint: {x: -5.228, y: 3.772, z: -1.17}
--- !u!108 &726812306117025819
Light:
  m_ObjectHideFlags: 0
  m_CorrespondingSourceObject: {fileID: 0}
  m_PrefabInstance: {fileID: 0}
  m_PrefabAsset: {fileID: 0}
  m_GameObject: {fileID: 3423995902681725442}
  m_Enabled: 1
  serializedVersion: 10
  m_Type: 2
  m_Shape: 0
  m_Color: {r: 0.8584906, g: 0.7760738, b: 0.116625085, a: 1}
  m_Intensity: 9.48
  m_Range: 10
  m_SpotAngle: 30
  m_InnerSpotAngle: 21.80208
  m_CookieSize: 10
  m_Shadows:
    m_Type: 2
    m_Resolution: -1
    m_CustomResolution: -1
    m_Strength: 1
    m_Bias: 0.05
    m_NormalBias: 0.4
    m_NearPlane: 0.2
    m_CullingMatrixOverride:
      e00: 1
      e01: 0
      e02: 0
      e03: 0
      e10: 0
      e11: 1
      e12: 0
      e13: 0
      e20: 0
      e21: 0
      e22: 1
      e23: 0
      e30: 0
      e31: 0
      e32: 0
      e33: 1
    m_UseCullingMatrixOverride: 0
  m_Cookie: {fileID: 0}
  m_DrawHalo: 0
  m_Flare: {fileID: 0}
  m_RenderMode: 0
  m_CullingMask:
    serializedVersion: 2
    m_Bits: 4294967295
  m_RenderingLayerMask: 1
  m_Lightmapping: 4
  m_LightShadowCasterMode: 0
  m_AreaSize: {x: 1, y: 1}
  m_BounceIntensity: 1
  m_ColorTemperature: 6570
  m_UseColorTemperature: 0
  m_BoundingSphereOverride: {x: 0, y: 0, z: 0, w: 0}
  m_UseBoundingSphereOverride: 0
  m_UseViewFrustumForShadowCasterCull: 1
  m_ShadowRadius: 0
  m_ShadowAngle: 0
--- !u!1001 &3933937455180948901
PrefabInstance:
  m_ObjectHideFlags: 0
  serializedVersion: 2
  m_Modification:
    serializedVersion: 3
    m_TransformParent: {fileID: 0}
    m_Modifications:
    - target: {fileID: 100000, guid: 2b858557e2e59a748a2c7606a9052648, type: 3}
      propertyPath: m_Name
      value: HandLight
      objectReference: {fileID: 0}
    - target: {fileID: 400000, guid: 2b858557e2e59a748a2c7606a9052648, type: 3}
      propertyPath: m_LocalScale.x
      value: 0.58903265
      objectReference: {fileID: 0}
    - target: {fileID: 400000, guid: 2b858557e2e59a748a2c7606a9052648, type: 3}
      propertyPath: m_LocalScale.z
      value: 0.55846
      objectReference: {fileID: 0}
    - target: {fileID: 400000, guid: 2b858557e2e59a748a2c7606a9052648, type: 3}
      propertyPath: m_LocalPosition.x
      value: -0.11000061
      objectReference: {fileID: 0}
    - target: {fileID: 400000, guid: 2b858557e2e59a748a2c7606a9052648, type: 3}
      propertyPath: m_LocalPosition.y
      value: -0.68799996
      objectReference: {fileID: 0}
    - target: {fileID: 400000, guid: 2b858557e2e59a748a2c7606a9052648, type: 3}
      propertyPath: m_LocalPosition.z
      value: 1.2799988
      objectReference: {fileID: 0}
    - target: {fileID: 400000, guid: 2b858557e2e59a748a2c7606a9052648, type: 3}
      propertyPath: m_LocalRotation.w
      value: 0.41225803
      objectReference: {fileID: 0}
    - target: {fileID: 400000, guid: 2b858557e2e59a748a2c7606a9052648, type: 3}
      propertyPath: m_LocalRotation.x
      value: 0.6222082
      objectReference: {fileID: 0}
    - target: {fileID: 400000, guid: 2b858557e2e59a748a2c7606a9052648, type: 3}
      propertyPath: m_LocalRotation.y
      value: 0.5575968
      objectReference: {fileID: 0}
    - target: {fileID: 400000, guid: 2b858557e2e59a748a2c7606a9052648, type: 3}
      propertyPath: m_LocalRotation.z
      value: 0.3632991
      objectReference: {fileID: 0}
    - target: {fileID: 400000, guid: 2b858557e2e59a748a2c7606a9052648, type: 3}
      propertyPath: m_LocalEulerAnglesHint.x
      value: 6.193
      objectReference: {fileID: 0}
    - target: {fileID: 400000, guid: 2b858557e2e59a748a2c7606a9052648, type: 3}
      propertyPath: m_LocalEulerAnglesHint.y
      value: 113.481
      objectReference: {fileID: 0}
    - target: {fileID: 400000, guid: 2b858557e2e59a748a2c7606a9052648, type: 3}
      propertyPath: m_LocalEulerAnglesHint.z
      value: 92.205
      objectReference: {fileID: 0}
    m_RemovedComponents: []
    m_RemovedGameObjects: []
    m_AddedGameObjects:
    - targetCorrespondingSourceObject: {fileID: 400000, guid: 2b858557e2e59a748a2c7606a9052648, type: 3}
      insertIndex: -1
      addedObject: {fileID: 6691452158422745195}
    m_AddedComponents: []
  m_SourcePrefab: {fileID: 100100000, guid: 2b858557e2e59a748a2c7606a9052648, type: 3}
--- !u!4 &3933937455181086501 stripped
Transform:
  m_CorrespondingSourceObject: {fileID: 400000, guid: 2b858557e2e59a748a2c7606a9052648, type: 3}
  m_PrefabInstance: {fileID: 3933937455180948901}
  m_PrefabAsset: {fileID: 0}
